Income & Obesity Correlation_Project 1
…
library(tidyr)
library(dplyr)
Obesity2 <- inner_join(PopulationUS, AdultObesity, by = "State")
print(Obesity2)

## # A tibble: 50 x 5
##    State          Population Value ...3         ...4
##    <chr>               <dbl> <dbl> <chr>       <dbl>
##  1 California       38802500  24.7 (23.5-25.9)  8025
##  2 Texas            26956958  31.9 (30.6-33.3) 14058
##  3 Florida          19893297  26.2 (25.0-27.5)  9156
##  4 New York         19746227  27   (25.6-28.5)  6325
##  5 Illinois         12880580  29.3 (27.6-31.1)  4835
##  6 Pennsylvania     12787209  30.2 (28.9-31.4) 10374
##  7 Ohio             11594163  32.6 (31.2-34.1) 10313
##  8 Georgia          10097343  30.5 (28.9-32.1)  5844
##  9 North Carolina    9943964  29.7 (28.4-31.0)  6621
## 10 Michigan          9909877  30.7 (29.4-32.0)  8024
## # … with 40 more rows
…
#To join my datasets, I used the function inner_join. I combined these datasets by State, this way each state would have a column that shows the total population of the state from 2014, the percentage of the population that is obese, and the average income per citizen. Here, I also renamed Population to Population 2014. Next, I chose to use the select function to make one final dataset. This allowed me to exclude unwanted variables from the Obesity dataset. The variables that were dropped were variables that were not needed and were just metadata aboout obesity estimates. The variables that were dropped were "95% Cl" and "sample size" values. The new dataset consists of States in alphabetical order, Population2014, ObesePercentage, and Income2014. 

DataProj2 <- rename(DataProject, ObesityPercentage= Value)%>% select(State, Population2014, ObesityPercentage, Income)%>% mutate(IncomePerState = Population2014 * Income) %>% mutate(TotalofPop_Obese=Population2014 * (ObesityPercentage/100))
DataProj2 %>% arrange(desc(ObesityPercentage))

## # A tibble: 50 x 6
##    State  Population2014 ObesityPercenta… Income IncomePerState TotalofPop_Obese
##    <chr>           <dbl>            <dbl>  <dbl>          <dbl>            <dbl>
##  1 Arkan…        2966369             35.9  37782   112075353558         1064926.
##  2 West …        1850326             35.7  36132    66855979032          660566.
##  3 Missi…        2994179             35.5  34431   103092577149         1062934.
##  4 Louis…        4649676             34.9  42030   195425882280         1622737.
##  5 Alaba…        4849377             33.5  37512   181909830024         1624541.
##  6 Oklah…        3878051             33    43637   169226511487         1279757.
##  7 India…        6596855             32.7  39578   261090327190         2157172.
##  8 Ohio         11594163             32.6  42236   489691068468         3779697.
##  9 North…         739482             32.2  55802    41264574564          238113.
## 10 South…        4832482             32.1  36677   177240942314         1551227.
## # … with 40 more rows
…
#The bar graph above, titled "Percent of Population that is Obese Per State in the US. 2014, by Income", shows the US states in the x axis and the percentage of the population in the y axis. The third variable in this graph is the total income per state. As seen in the bar graph the darker reds, symbolizing higher income, have a lower percentage of obesity among their population. However, the lighter reds, symbolizing lower income, have higher values of obesity among their population. 

library(cluster) 
select(DataProj2, Income, Population2014,ObesityPercentage)

## # A tibble: 50 x 3
##    Income Population2014 ObesityPercentage
##     <dbl>          <dbl>             <dbl>
##  1  49985       38802500              24.7
##  2  45669       26956958              31.9
##  3  42737       19893297              26.2
##  4  55611       19746227              27  
##  5  47643       12880580              29.3
##  6  47679       12787209              30.2
##  7  42236       11594163              32.6
##  8  38980       10097343              30.5
##  9  39171        9943964              29.7
## 10  40740        9909877              30.7
## # … with 40 more rows
…
